{
    "name": "SpentSharing",
    "fields": [
        {
            "fieldName": "amountShare",
            "fieldType": "Float",
            "fieldValidateRules": [
                "required"
            ]
        },
        {
            "fieldName": "share",
            "fieldType": "Float",
            "fieldValidateRules": [
                "required"
            ]
        }
    ],
    "relationships": [
        {
            "relationshipType": "many-to-one",
            "otherEntityName": "profil",
            "otherEntityRelationshipName": "spentSharing",
            "relationshipName": "sharingUser",
            "otherEntityField": "displayName"
        },
        {
            "relationshipType": "many-to-one",
            "otherEntityName": "spent",
            "otherEntityRelationshipName": "sharing",
            "relationshipName": "spent",
            "otherEntityField": "label"
        }
    ],
    "changelogDate": "20190503123230",
    "entityTableName": "spent_sharing",
    "dto": "mapstruct",
    "pagination": "no",
    "service": "serviceClass",
    "jpaMetamodelFiltering": true,
    "fluentMethods": true,
    "clientRootFolder": "",
    "applications": "*"
}