{
    "name": "Workspace",
    "fields": [
        {
            "fieldName": "label",
            "fieldType": "String",
            "fieldValidateRules": [
                "required",
                "minlength",
                "maxlength"
            ],
            "fieldValidateRulesMinlength": 5,
            "fieldValidateRulesMaxlength": 40
        }
    ],
    "relationships": [
        {
            "relationshipType": "many-to-many",
            "otherEntityName": "profil",
            "otherEntityRelationshipName": "workspace",
            "relationshipName": "owner",
            "otherEntityField": "displayName",
            "ownerSide": true
        },
        {
            "relationshipType": "one-to-many",
            "otherEntityName": "taskProject",
            "otherEntityRelationshipName": "workspace",
            "relationshipName": "taskProject"
        },
        {
            "relationshipType": "one-to-many",
            "otherEntityName": "wallet",
            "otherEntityRelationshipName": "workspace",
            "relationshipName": "wallet"
        }
    ],
    "changelogDate": "20190503123225",
    "entityTableName": "workspace",
    "dto": "mapstruct",
    "pagination": "infinite-scroll",
    "service": "serviceClass",
    "jpaMetamodelFiltering": true,
    "fluentMethods": true,
    "clientRootFolder": "",
    "applications": "*"
}